Keeping track of notes, with the eventual hope of a book…
…
dn %>%
  filter(!(state %in% states$abbreviation))

## # A tibble: 0 x 6
## # ... with 6 variables: address <chr>, city <chr>, state <chr>, zip <chr>,
## #   longitude <dbl>, latitude <dbl>

Exercise 6: Add a country variable to the Denny’s dataset and set all observations equal to "United States". Remember, you can use the mutate function for adding a variable.

We don’t need to tell R how many times to repeat the character string “United States” to fill in the data for all observations, R takes care of that automatically.

dn %>%
  mutate(country = "United States")

## # A tibble: 1,643 x 7
##    address            city        state zip   longitude latitude country  
##    <chr>              <chr>       <chr> <chr>     <dbl>    <dbl> <chr>    
##  1 2900 Denali        Anchorage   AK    99503    -150       61.2 United S…
##  2 3850 Debarr Road   Anchorage   AK    99508    -150       61.2 United S…
##  3 1929 Airport Way   Fairbanks   AK    99701    -148       64.8 United S…
##  4 230 Connector Dr   Auburn      AL    36849    - 85.5     32.6 United S…
##  5 224 Daniel Payne … Birmingham  AL    35207    - 86.8     33.6 United S…
##  6 900 16th St S, Co… Birmingham  AL    35294    - 86.8     33.5 United S…
##  7 5931 Alabama High… Cullman     AL    35056    - 86.9     34.2 United S…
##  8 2190 Ross Clark C… Dothan      AL    36301    - 85.4     31.2 United S…
##  9 900 Tyson Rd       Hope Hull … AL    36043    - 86.4     32.2 United S…
## 10 4874 University D… Huntsville  AL    35816    - 86.7     34.7 United S…
## # ... with 1,633 more rows
…
